<?xml version="1.0" encoding="UTF-8" standalone="no"?>
<svg
   xmlns:dc="http://purl.org/dc/elements/1.1/"
   xmlns:cc="http://creativecommons.org/ns#"
   xmlns:rdf="http://www.w3.org/1999/02/22-rdf-syntax-ns#"
   xmlns:svg="http://www.w3.org/2000/svg"
   xmlns="http://www.w3.org/2000/svg"
   xmlns:sodipodi="http://sodipodi.sourceforge.net/DTD/sodipodi-0.dtd"
   xmlns:inkscape="http://www.inkscape.org/namespaces/inkscape"
   version="1.1"
   id="Layer_1"
   x="0px"
   y="0px"
   viewBox="0 0 1000 1000"
   style="enable-background:new 0 0 1000 1000;"
   xml:space="preserve"
   sodipodi:docname="games.svg"
   inkscape:version="1.0.1 (3bc2e813f5, 2020-09-07)"><sodipodi:namedview
   pagecolor="#ffffff"
   bordercolor="#666666"
   borderopacity="1"
   objecttolerance="10"
   gridtolerance="10"
   guidetolerance="10"
   inkscape:pageopacity="0"
   inkscape:pageshadow="2"
   inkscape:window-width="1366"
   inkscape:window-height="768"
   id="namedview60"
   showgrid="false"
   inkscape:snap-bbox="true"
   inkscape:zoom="0.5"
   inkscape:cx="834.50059"
   inkscape:cy="461.74618"
   inkscape:window-x="0"
   inkscape:window-y="0"
   inkscape:window-maximized="0"
   inkscape:current-layer="Layer_1" /><metadata
   id="metadata200"><rdf:RDF><cc:Work
       rdf:about=""><dc:format>image/svg+xml</dc:format><dc:type
         rdf:resource="http://purl.org/dc/dcmitype/StillImage" /><dc:title /></cc:Work></rdf:RDF></metadata><defs
   id="defs198" />
<style
   type="text/css"
   id="style2">
	.st0{fill:#53BCBD;}
	.st1{opacity:0.41;stroke:#000000;stroke-width:10;stroke-linecap:round;stroke-linejoin:round;stroke-miterlimit:10;}
	.st2{opacity:0.41;fill:none;stroke:#000000;stroke-width:10;stroke-linecap:round;stroke-linejoin:round;stroke-miterlimit:10;}
	.st3{fill:none;stroke:#663C3B;stroke-width:10;stroke-linejoin:round;stroke-miterlimit:10;}
	.st4{fill:#663C3B;}
	.st5{fill:#FEC556;}
	.st6{fill:#F29940;}
	.st7{fill:#835559;}
	.st8{fill:#95676B;}
	.st9{fill:none;stroke:#663C3B;stroke-width:6;stroke-linecap:round;stroke-linejoin:round;stroke-miterlimit:10;}
	.st10{fill:none;stroke:#663C3B;stroke-width:3;stroke-linecap:round;stroke-linejoin:round;stroke-miterlimit:10;}
	.st11{fill:none;stroke:#663C3B;stroke-width:8;stroke-linecap:round;stroke-linejoin:round;stroke-miterlimit:10;}
	.st12{opacity:0.17;}
	.st13{fill:#32B94D;}
	.st14{fill:none;stroke:#663C3B;stroke-width:2;stroke-linecap:round;stroke-linejoin:round;stroke-miterlimit:10;}
	.st15{fill:#8BD8F5;}
	.st16{fill:#FEF585;}
	.st17{fill:#E7503B;}
	.st18{fill:#EEF2F4;}
</style>

<path
   id="XMLID_20_"
   class="st1"
   d="M 776.24174,596.20122 H 231.46592 c -104.51095,0 -189.237931,84.72698 -189.237931,189.23793 0,104.51094 84.726981,189.23791 189.237931,189.23791 73.54473,0 137.34084,-42.00509 168.59377,-103.22069 h 207.58826 c 31.25293,61.2156 95.04905,103.22069 168.59379,103.22069 104.51094,0 189.23791,-84.72697 189.23791,-189.23791 0,-104.51095 -84.72697,-189.23793 -189.23791,-189.23793 z" />
<path
   id="XMLID_19_"
   class="st2"
   d="m 503.85382,549.89528 v -171.1743 c 0,-19.6406 -15.91318,-35.55379 -35.55378,-35.55379 H 199.49618 c -19.64061,0 -35.5538,-15.9132 -35.5538,-35.55379 v 0 c 0,-19.6406 15.91319,-35.55379 35.5538,-35.55379 h 569.86418 c 19.6406,0 35.5538,-15.9132 35.5538,-35.5538 v 0 c 0,-19.64059 -15.9132,-35.55378 -35.5538,-35.55378 H 539.26425 c -19.64059,0 -35.55378,-15.9132 -35.55378,-35.5538 V 14.437986" />
<path
   id="XMLID_43_"
   class="st3"
   d="m 503.85382,530.82812 v -171.1743 c 0,-19.6406 -15.91318,-35.55378 -35.55378,-35.55378 H 199.49618 c -19.64061,0 -35.5538,-15.91319 -35.5538,-35.5538 v 0 c 0,-19.6406 15.91319,-35.55378 35.5538,-35.55378 h 569.86418 c 19.6406,0 35.5538,-15.91319 35.5538,-35.5538 v 0 c 0,-19.6406 -15.9132,-35.55379 -35.5538,-35.55379 H 539.26425 c -19.64059,0 -35.55378,-15.91318 -35.55378,-35.55379 V 1.5354004" />
<rect
   id="XMLID_37_"
   x="462.27881"
   y="544.87756"
   class="st4"
   width="83.149994"
   height="17.920258"
   style="stroke-width:1.43362" />
<rect
   id="XMLID_41_"
   x="474.03452"
   y="535.98914"
   class="st4"
   width="59.495258"
   height="14.049482"
   style="stroke-width:1.43362" />
<rect
   id="XMLID_54_"
   x="481.91946"
   y="526.95734"
   class="st4"
   width="43.72543"
   height="13.476033"
   style="stroke-width:1.43362" />
<path
   id="XMLID_44_"
   class="st5"
   d="M 776.24174,563.22795 H 231.46592 c -104.51095,0 -189.237931,84.72698 -189.237931,189.23792 0,104.51095 84.726981,189.23792 189.237931,189.23792 73.54473,0 137.34084,-42.00509 168.59377,-103.22069 h 207.58826 c 31.25293,61.2156 95.04905,103.22069 168.59379,103.22069 104.51094,0 189.23791,-84.72697 189.23791,-189.23792 0,-104.51094 -84.72697,-189.23792 -189.23791,-189.23792 z"
   style="stroke-width:1.43362" />
<path
   id="XMLID_74_"
   class="st6"
   d="m 474.32124,637.4895 h -40.14138 c -3.15396,0 -5.73447,-2.58053 -5.73447,-5.73448 v 0 c 0,-3.15397 2.58051,-5.73449 5.73447,-5.73449 h 40.14138 c 3.15397,0 5.73449,2.58052 5.73449,5.73449 v 0 c 0,3.15395 -2.43716,5.73448 -5.73449,5.73448 z"
   style="stroke-width:1.43362" />
<path
   id="XMLID_73_"
   class="st6"
   d="m 587.14718,637.91959 h -81.57301 c -3.15396,0 -5.73448,-2.58053 -5.73448,-5.73448 v 0 c 0,-3.15397 2.58052,-5.73449 5.73448,-5.73449 h 81.57301 c 3.15397,0 5.73448,2.58052 5.73448,5.73449 v 0 c 0,3.15395 -2.43714,5.73448 -5.73448,5.73448 z"
   style="stroke-width:1.43362" />
<path
   id="XMLID_71_"
   class="st6"
   d="M 587.14718,661.57432 H 434.0365 c -3.15396,0 -5.73448,-2.58052 -5.73448,-5.73448 v 0 c 0,-3.15396 2.58052,-5.73448 5.73448,-5.73448 h 153.11068 c 3.15397,0 5.73448,2.58052 5.73448,5.73448 v 0 c 0,3.15396 -2.58051,5.73448 -5.73448,5.73448 z"
   style="stroke-width:1.43362" />
<path
   id="XMLID_67_"
   class="st6"
   d="m 432.31615,779.5613 v 0 c -5.01766,-5.01768 -5.01766,-13.18931 0,-18.20698 l 42.57853,-42.57853 c 5.01768,-5.01768 13.18932,-5.01768 18.207,0 v 0 c 5.01766,5.01767 5.01766,13.1893 0,18.20698 l -42.57855,42.57853 c -5.01766,5.01767 -13.1893,5.01767 -18.20698,0 z"
   style="stroke-width:1.43362" />
<path
   id="XMLID_56_"
   class="st6"
   d="m 528.36874,779.5613 v 0 c -5.01767,-5.01768 -5.01767,-13.18931 0,-18.20698 l 42.57853,-42.57853 c 5.01768,-5.01768 13.18931,-5.01768 18.20698,0 v 0 c 5.01768,5.01767 5.01768,13.1893 0,18.20698 l -42.57853,42.57853 c -5.01767,5.01767 -13.1893,5.01767 -18.20698,0 z"
   style="stroke-width:1.43362" />
<path
   id="XMLID_53_"
   class="st6"
   d="m 231.46592,579.71459 h 544.77582 c 102.21715,0 185.5105,79.7093 189.09456,179.34593 0.14335,-2.29379 0.14335,-4.44422 0.14335,-6.73801 0,-104.51094 -84.72697,-189.23793 -189.23791,-189.23793 H 231.46592 c -104.51095,0 -189.237931,84.72699 -189.237931,189.23793 0,2.29379 0,4.44422 0.143367,6.73801 3.44069,-99.63663 86.734054,-179.34593 189.094564,-179.34593 z"
   style="stroke-width:1.43362" />
<path
   id="XMLID_52_"
   class="st6"
   d="m 776.24174,917.33224 c -73.54474,0 -133.03999,-30.53612 -164.29292,-91.75172 H 395.75884 c -31.25293,61.2156 -90.74819,91.75172 -164.29292,91.75172 -100.35345,0 -182.499917,-78.27568 -188.807843,-177.05215 -0.286721,4.01414 -0.430088,8.02828 -0.430088,12.18578 0,104.51095 84.726981,189.23792 189.237931,189.23792 73.54473,0 137.34084,-42.00509 168.59377,-103.22069 h 207.58826 c 31.25293,61.2156 95.04905,103.22069 168.59379,103.22069 104.51094,0 189.23791,-84.72697 189.23791,-189.23792 0,-4.1575 -0.14335,-8.17164 -0.43008,-12.18578 -6.30793,98.77647 -88.45439,177.05215 -188.80783,177.05215 z"
   style="stroke-width:1.43362" />
<circle
   id="XMLID_48_"
   class="st6"
   cx="232.18271"
   cy="762.7879"
   r="121.85774"
   style="stroke-width:1.43362" />
<circle
   id="XMLID_46_"
   class="st7"
   cx="232.18271"
   cy="752.46588"
   r="120.42413"
   style="stroke-width:1.43362" />
<circle
   id="XMLID_50_"
   class="st8"
   cx="232.18271"
   cy="752.46588"
   r="101.78706"
   style="stroke-width:1.43362" />
<path
   id="XMLID_6_"
   class="st4"
   d="m 304.4372,729.52794 h -49.31655 v -49.31655 c 0,-3.58405 -3.0106,-6.59465 -6.59465,-6.59465 h -32.68655 c -3.58405,0 -6.59466,3.0106 -6.59466,6.59465 v 49.31655 h -49.31654 c -3.58406,0 -6.59466,3.01061 -6.59466,6.59465 v 32.68655 c 0,3.58406 3.0106,6.59466 6.59466,6.59466 h 49.31654 v 49.31654 c 0,3.58406 3.01061,6.59466 6.59466,6.59466 H 248.526 c 3.58405,0 6.59465,-3.0106 6.59465,-6.59466 V 775.4038 h 49.31655 c 3.58405,0 6.59465,-3.0106 6.59465,-6.59466 v -32.68655 c 0,-3.72741 -3.0106,-6.59465 -6.59465,-6.59465 z"
   style="stroke-width:1.43362" />
<circle
   id="XMLID_7_"
   class="st9"
   cx="232.18271"
   cy="752.46588"
   r="120.42413" />
<circle
   id="XMLID_51_"
   class="st6"
   cx="776.95856"
   cy="762.7879"
   r="121.85774"
   style="stroke-width:1.43362" />
<circle
   id="XMLID_49_"
   class="st7"
   cx="776.95856"
   cy="752.46588"
   r="120.42413"
   style="stroke-width:1.43362" />
<circle
   id="XMLID_66_"
   class="st8"
   cx="776.95856"
   cy="752.46588"
   r="101.78706"
   style="stroke-width:1.43362" />
<circle
   id="XMLID_16_"
   class="st9"
   cx="776.95856"
   cy="752.46588"
   r="120.42413" />
<path
   id="XMLID_10_"
   class="st5"
   d="m 222.86419,699.99535 7.88491,-13.76275 c 0.57345,-1.00354 2.00707,-1.00354 2.58052,0 l 7.88491,13.76275 c 0.57345,1.00354 -0.14336,2.2938 -1.29026,2.2938 h -15.91319 c -1.00353,0 -1.72034,-1.29026 -1.14689,-2.2938 z"
   style="stroke-width:1.43362" />
<path
   id="XMLID_12_"
   class="st5"
   d="m 222.86419,804.93638 7.88491,13.76276 c 0.57345,1.00354 2.00707,1.00354 2.58052,0 l 7.88491,-13.76276 c 0.57345,-1.00353 -0.14336,-2.29379 -1.29026,-2.29379 h -15.91319 c -1.00353,0 -1.72034,1.29026 -1.14689,2.29379 z"
   style="stroke-width:1.43362" />
<path
   id="XMLID_55_"
   class="st10"
   d="m 304.4372,729.52794 h -49.31655 v -49.31655 c 0,-3.58405 -3.0106,-6.59465 -6.59465,-6.59465 h -32.68655 c -3.58405,0 -6.59466,3.0106 -6.59466,6.59465 v 49.31655 h -49.31654 c -3.58406,0 -6.59466,3.01061 -6.59466,6.59465 v 32.68655 c 0,3.58406 3.0106,6.59466 6.59466,6.59466 h 49.31654 v 49.31654 c 0,3.58406 3.01061,6.59466 6.59466,6.59466 H 248.526 c 3.58405,0 6.59465,-3.0106 6.59465,-6.59466 V 775.4038 h 49.31655 c 3.58405,0 6.59465,-3.0106 6.59465,-6.59466 v -32.68655 c 0,-3.72741 -3.0106,-6.59465 -6.59465,-6.59465 z" />
<path
   id="XMLID_11_"
   class="st5"
   d="m 282.07271,743.14734 13.76276,7.88491 c 1.00355,0.57345 1.00355,2.00707 0,2.58051 l -13.76276,7.88492 c -1.00353,0.57345 -2.29379,-0.14336 -2.29379,-1.29026 v -15.91319 c 0,-1.00354 1.29026,-1.72035 2.29379,-1.14689 z"
   style="stroke-width:1.43362" />
<path
   id="XMLID_9_"
   class="st5"
   d="m 179.71221,743.14734 -13.76276,7.88491 c -1.00354,0.57345 -1.00354,2.00707 0,2.58051 l 13.76276,7.88492 c 1.00353,0.57345 2.2938,-0.14336 2.2938,-1.29026 v -15.91319 c 0,-1.00354 -1.29027,-1.72035 -2.2938,-1.14689 z"
   style="stroke-width:1.43362" />
<path
   id="XMLID_45_"
   class="st11"
   d="m 646.78579,554.62623 h 130.17276 c 27.95561,0 54.62094,5.87784 78.84914,16.34328" />
<path
   id="XMLID_36_"
   class="st11"
   d="m 153.33359,570.96951 c 24.22818,-10.60879 50.89353,-16.34328 78.84914,-16.34328 h 127.87895" />
<path
   id="XMLID_32_"
   class="st9"
   d="M 776.24174,563.22795 H 231.46592 c -104.51095,0 -189.237931,84.72698 -189.237931,189.23792 0,104.51095 84.726981,189.23792 189.237931,189.23792 73.54473,0 137.34084,-42.00509 168.59377,-103.22069 h 207.58826 c 31.25293,61.2156 95.04905,103.22069 168.59379,103.22069 104.51094,0 189.23791,-84.72697 189.23791,-189.23792 0,-104.51094 -84.72697,-189.23792 -189.23791,-189.23792 z" />
<path
   id="XMLID_65_"
   class="st12"
   d="m 796.31243,734.83234 -56.77138,56.77137 c -12.32913,12.32914 -32.25646,12.32914 -44.5856,0 v 0 c -12.32914,-12.32913 -12.32914,-32.25646 0,-44.58559 l 56.77137,-56.77138 c 12.32914,-12.32915 32.25648,-12.32915 44.58561,0 v 0 c 12.32914,12.18577 12.32914,32.25646 0,44.5856 z"
   style="stroke-width:1.43362" />
<path
   id="XMLID_59_"
   class="st5"
   d="m 793.44519,729.09786 -56.77138,56.77138 c -12.32914,12.32913 -32.25646,12.32913 -44.5856,0 v 0 c -12.32913,-12.32915 -12.32913,-32.25648 0,-44.58561 l 56.77138,-56.77138 c 12.32914,-12.32914 32.25646,-12.32914 44.5856,0 v 0 c 12.32913,12.18578 12.32913,32.25646 0,44.58561 z"
   style="stroke-width:1.43362" />
<path
   id="XMLID_2_"
   class="st10"
   d="m 793.44519,729.09786 -56.77138,56.77138 c -12.32914,12.32913 -32.25646,12.32913 -44.5856,0 v 0 c -12.32913,-12.32915 -12.32913,-32.25648 0,-44.58561 l 56.77138,-56.77138 c 12.32914,-12.32914 32.25646,-12.32914 44.5856,0 v 0 c 12.32913,12.18578 12.32913,32.25646 0,44.58561 z" />
<circle
   id="XMLID_63_"
   class="st13"
   cx="714.4527"
   cy="763.5047"
   r="20.07069"
   style="stroke-width:1.43362" />
<path
   id="XMLID_8_"
   class="st14"
   d="m 701.5501,762.35785 c 0.57346,-7.1681 6.88138,-12.32913 14.04948,-11.75569" />
<circle
   id="XMLID_18_"
   class="st10"
   cx="714.4527"
   cy="763.5047"
   r="20.07069" />
<circle
   id="XMLID_62_"
   class="st15"
   cx="771.22406"
   cy="706.73334"
   r="20.07069"
   style="stroke-width:1.43362" />
<path
   id="XMLID_13_"
   class="st14"
   d="m 758.32148,706.73338 c 0,-7.16812 5.73448,-12.90259 12.90259,-12.90259" />
<circle
   id="XMLID_17_"
   class="st10"
   cx="771.22406"
   cy="706.73334"
   r="20.07069" />
<path
   id="XMLID_64_"
   class="st12"
   d="m 863.11915,772.3932 -56.77138,56.77138 c -12.32914,12.32913 -32.25646,12.32913 -44.5856,0 v 0 c -12.32914,-12.32915 -12.32914,-32.25648 0,-44.58561 l 56.77138,-56.77138 c 12.32913,-12.32913 32.25646,-12.32913 44.5856,0 v 0 c 12.32913,12.32915 12.32913,32.25646 0,44.58561 z"
   style="stroke-width:1.43362" />
<path
   id="XMLID_57_"
   class="st5"
   d="m 861.68552,765.2251 -56.77136,56.77137 c -12.32915,12.32913 -32.25648,12.32913 -44.58561,0 v 0 c -12.32914,-12.32914 -12.32914,-32.25647 0,-44.5856 l 56.77138,-56.77138 c 12.32913,-12.32914 32.25646,-12.32914 44.58559,0 v 0 c 12.32915,12.32914 12.32915,32.25646 0,44.58561 z"
   style="stroke-width:1.43362" />
<path
   id="XMLID_35_"
   class="st10"
   d="m 861.68552,765.2251 -56.77136,56.77137 c -12.32915,12.32913 -32.25648,12.32913 -44.58561,0 v 0 c -12.32914,-12.32914 -12.32914,-32.25647 0,-44.5856 l 56.77138,-56.77138 c 12.32913,-12.32914 32.25646,-12.32914 44.58559,0 v 0 c 12.32915,12.32914 12.32915,32.25646 0,44.58561 z" />
<circle
   id="XMLID_61_"
   class="st16"
   cx="782.69305"
   cy="799.77533"
   r="20.07069"
   style="stroke-width:1.43362" />
<path
   id="XMLID_15_"
   class="st14"
   d="m 769.79045,799.77535 c 0,-7.1681 5.73448,-12.90258 12.90258,-12.90258" />
<circle
   id="XMLID_34_"
   class="st10"
   cx="782.69305"
   cy="799.77533"
   r="20.07069" />
<circle
   id="XMLID_33_"
   class="st17"
   cx="839.46448"
   cy="743.00403"
   r="20.07069"
   style="stroke-width:1.43362" />
<path
   id="XMLID_70_"
   class="st14"
   d="m 826.56183,743.00397 c 0,-7.1681 5.73448,-12.90258 12.90258,-12.90258" />
<circle
   id="XMLID_60_"
   class="st10"
   cx="839.46448"
   cy="743.00403"
   r="20.07069" />
<path
   id="XMLID_14_"
   class="st4"
   d="m 432.31615,773.82681 v 0 c -5.01766,-5.01767 -5.01766,-13.1893 0,-18.20698 l 42.57853,-42.57853 c 5.01768,-5.01767 13.18932,-5.01767 18.207,0 v 0 c 5.01766,5.01768 5.01766,13.18931 0,18.20698 l -42.57855,42.57853 c -5.01766,5.01768 -13.1893,5.01768 -18.20698,0 z"
   style="stroke-width:1.43362" />
<path
   id="XMLID_38_"
   class="st4"
   d="m 528.36874,773.82681 v 0 c -5.01767,-5.01767 -5.01767,-13.1893 0,-18.20698 l 42.57853,-42.57853 c 5.01768,-5.01767 13.18931,-5.01767 18.20698,0 v 0 c 5.01768,5.01768 5.01768,13.18931 0,18.20698 l -42.57853,42.57853 c -5.01767,5.01768 -13.1893,5.01768 -18.20698,0 z"
   style="stroke-width:1.43362" />
<circle
   id="XMLID_58_"
   class="st5"
   cx="232.18271"
   cy="752.46588"
   r="22.937929"
   style="stroke-width:1.43362" />
<path
   id="XMLID_72_"
   class="st6"
   d="m 232.18273,770.67285 c -11.61234,0 -21.64767,-9.17517 -22.79457,-20.64413 -0.14337,0.71681 -0.14337,1.57698 -0.14337,2.29379 0,12.4725 10.46543,22.93792 22.93794,22.93792 12.47249,0 22.93792,-10.46542 22.93792,-22.93792 0,-0.86017 0,-1.57698 -0.14336,-2.29379 -1.29026,11.46896 -11.18224,20.64413 -22.79456,20.64413 z"
   style="stroke-width:1.43362" />
<path
   id="XMLID_68_"
   class="st14"
   d="m 214.97928,752.46587 c 0,-9.31853 7.88491,-17.20344 17.20345,-17.20344" />

</svg>
