9. April 2007: KSquares has been moved to kdegames. See <a href="kde_boardgames.php">Boardgames</a> for more information.
1. October 2006: Version 0.13 of the Real Time Strategy game <a href="http://boson.eu.org">Boson</a> has been released. Read the <a href="http://boson.sourceforge.net/announces/boson-0.10.php">full announcement</a>
19. August 2002: Links to articles and documentation can be found under <a href="gamedoc.html">Articles&amp;Docs</a>
27. July 2002: Version 1.0 (KDE3.0 support) of <a href="http://www.heni-online.de/linux">Quintalign</a> (KDE3.0 adaption) released
19. May 2002: There is an article about <a href="http://edu.kde.org/developer/kaction.phtml">KAction in games</a> (mainly in games) on the <a href="http://edu.kde.org">kdeedu website</a>
26. September 2000:KDE Game News opened 
